%YAML 1.1
%TAG !u! tag:unity3d.com,2011:
--- !u!162 &1
EditorUserSettings:
  m_ObjectHideFlags: 0
  serializedVersion: 4
  m_ConfigSettings:
    RecentlyUsedSceneGuid-0:
      value: 0107000501500f025e58087243260a4444151b7e2e2d7065287b4f64bae4306c
      flags: 0
    RecentlyUsedSceneGuid-1:
      value: 0657020357535b03555c0a2114200d4440164878782c72612f7c4436e4b3356c
      flags: 0
    RecentlyUsedSceneGuid-2:
      value: 51090150540d500e0b565e21467a0e4444151a72287e226429281e31bab26069
      flags: 0
    RecentlyUsedSceneGuid-3:
      value: 550801525501595a5a5d587a437a0b4410161c7d2f292332787f4e36b4e53060
      flags: 0
    RecentlyUsedSceneGuid-4:
      value: 5305045552545003090a5c7047735a4441154e2b7f7e72312b2a4960b6e5606c
      flags: 0
    RecentlyUsedSceneGuid-5:
      value: 00090156005051585e0c5d7613200744434e1d7d29797e66757c4a30e4b5626f
      flags: 0
    vcSharedLogLevel:
      value: 0d5e400f0650
      flags: 0
  m_VCAutomaticAdd: 1
  m_VCDebugCom: 0
  m_VCDebugCmd: 0
  m_VCDebugOut: 0
  m_SemanticMergeMode: 2
  m_DesiredImportWorkerCount: 4
  m_StandbyImportWorkerCount: 2
  m_IdleImportWorkerShutdownDelay: 60000
  m_VCShowFailedCheckout: 1
  m_VCOverwriteFailedCheckoutAssets: 1
  m_VCProjectOverlayIcons: 1
  m_VCHierarchyOverlayIcons: 1
  m_VCOtherOverlayIcons: 1
  m_VCAllowAsyncUpdate: 1
  m_ArtifactGarbageCollection: 1
